[
  {
    "name": "homesteads found",
    "numerator_expr": "1"
  },
  {
    "name": "structures found",
    "numerator_expr": "number_structures_total"
  },
  {
    "name": "structures found %",
    "numerator_expr": "number_structures_total",
    "denominator_field": "number_of_structures"
  },
  {
    "name": "structures sprayed",
    "numerator_expr": "number_of_structures_sprayed"
  },
  {
    "name": "structures sprayed %",
    "numerator_expr": "number_of_structures_sprayed",
    "denominator_field": "number_of_structures"
  },
  {
    "name": "sprayable structures not sprayed",
    "numerator_expr": "number_structures_total - number_of_structures_sprayed"
  },
  {
    "name": "sprayable structures not sprayed %",
    "numerator_expr": "number_structures_total - number_of_structures_sprayed",
    "denominator_field": "number_of_structures"
  }
]
